Tarea de Practica 1
…
(v2 = c(rep(c(1,2,3,4),c(1,2,3,4))))

##  [1] 1 2 2 3 3 3 4 4 4 4

(v3 = c(rep(seq(from = 1, to = 4, by = 1),4)))

##  [1] 1 2 3 4 1 2 3 4 1 2 3 4 1 2 3 4

mpg_2 <- mpg %>% 
  filter(class == "pickup") %>% 
  select(starts_with("c"))
mpg_2

## # A tibble: 33 x 3
##      cyl   cty class 
##    <int> <int> <chr> 
##  1     6    15 pickup
##  2     6    14 pickup
##  3     6    13 pickup
##  4     6    14 pickup
##  5     8    14 pickup
##  6     8    14 pickup
##  7     8     9 pickup
##  8     8    11 pickup
##  9     8    11 pickup
## 10     8    12 pickup
## # ... with 23 more rows
…
BMI_chol %>% 
  count(ageGroup)

##   ageGroup   n
## 1  Grupo 1 160
## 2  Grupo 2 207
## 3  Grupo 3  36

BMI_chol %>% 
  filter(gender == "female") %>% 
  group_by(ageGroup)

## # A tibble: 234 x 9
## # Groups:   ageGroup [3]
##     chol   age gender height weight waist   hip   BMI ageGroup
##    <int> <int> <chr>   <dbl>  <dbl> <int> <int> <dbl> <fct>   
##  1   203    46 female   1.57   54.9    29    38  22.2 Grupo 2 
##  2   165    29 female   1.63   99.0    46    48  37.5 Grupo 1 
##  3   228    58 female   1.55  116.     49    57  48.4 Grupo 2 
##  4   263    55 female   1.60   91.7    45    50  35.8 Grupo 2 
##  5   242    60 female   1.65   70.8    39    45  26.0 Grupo 2 
##  6   215    38 female   1.47   88.5    42    50  40.8 Grupo 1 
##  7   238    27 female   1.52   77.2    35    41  33.2 Grupo 1 
##  8   183    40 female   1.50   74.9    37    43  33.4 Grupo 1 
##  9   213    33 female   1.65   71.3    37    41  26.1 Grupo 1 
## 10   255    50 female   1.65   83.1    37    43  30.5 Grupo 2 
## # ... with 224 more rows
…
library(nycflights13)

## Warning: package 'nycflights13' was built under R version 4.0.5

filter(flights, arr_delay >= 120)

## # A tibble: 10,200 x 19
##     year month   day dep_time sched_dep_time dep_delay arr_time sched_arr_time
##    <int> <int> <int>    <int>          <int>     <dbl>    <int>          <int>
##  1  2013     1     1      811            630       101     1047            830
##  2  2013     1     1      848           1835       853     1001           1950
##  3  2013     1     1      957            733       144     1056            853
##  4  2013     1     1     1114            900       134     1447           1222
##  5  2013     1     1     1505           1310       115     1638           1431
##  6  2013     1     1     1525           1340       105     1831           1626
##  7  2013     1     1     1549           1445        64     1912           1656
##  8  2013     1     1     1558           1359       119     1718           1515
##  9  2013     1     1     1732           1630        62     2028           1825
## 10  2013     1     1     1803           1620       103     2008           1750
## # ... with 10,190 more rows, and 11 more variables: arr_delay <dbl>,
## #   carrier <chr>, flight <int>, tailnum <chr>, origin <chr>, dest <chr>,
## #   air_time <dbl>, distance <dbl>, hour <dbl>, minute <dbl>, time_hour <dttm>

filter(flights, dest =="IAH" | dest == "HOU")

## # A tibble: 9,313 x 19
##     year month   day dep_time sched_dep_time dep_delay arr_time sched_arr_time
##    <int> <int> <int>    <int>          <int>     <dbl>    <int>          <int>
##  1  2013     1     1      517            515         2      830            819
##  2  2013     1     1      533            529         4      850            830
##  3  2013     1     1      623            627        -4      933            932
##  4  2013     1     1      728            732        -4     1041           1038
##  5  2013     1     1      739            739         0     1104           1038
##  6  2013     1     1      908            908         0     1228           1219
##  7  2013     1     1     1028           1026         2     1350           1339
##  8  2013     1     1     1044           1045        -1     1352           1351
##  9  2013     1     1     1114            900       134     1447           1222
## 10  2013     1     1     1205           1200         5     1503           1505
## # ... with 9,303 more rows, and 11 more variables: arr_delay <dbl>,
## #   carrier <chr>, flight <int>, tailnum <chr>, origin <chr>, dest <chr>,
## #   air_time <dbl>, distance <dbl>, hour <dbl>, minute <dbl>, time_hour <dttm>

filter(flights, carrier %in% c("UA", "AA", "DL"))

## # A tibble: 139,504 x 19
##     year month   day dep_time sched_dep_time dep_delay arr_time sched_arr_time
##    <int> <int> <int>    <int>          <int>     <dbl>    <int>          <int>
##  1  2013     1     1      517            515         2      830            819
##  2  2013     1     1      533            529         4      850            830
##  3  2013     1     1      542            540         2      923            850
##  4  2013     1     1      554            600        -6      812            837
##  5  2013     1     1      554            558        -4      740            728
##  6  2013     1     1      558            600        -2      753            745
##  7  2013     1     1      558            600        -2      924            917
##  8  2013     1     1      558            600        -2      923            937
##  9  2013     1     1      559            600        -1      941            910
## 10  2013     1     1      559            600        -1      854            902
## # ... with 139,494 more rows, and 11 more variables: arr_delay <dbl>,
## #   carrier <chr>, flight <int>, tailnum <chr>, origin <chr>, dest <chr>,
## #   air_time <dbl>, distance <dbl>, hour <dbl>, minute <dbl>, time_hour <dttm>

filter(flights, month %in% c("6","7","8"))

## # A tibble: 86,995 x 19
##     year month   day dep_time sched_dep_time dep_delay arr_time sched_arr_time
##    <int> <int> <int>    <int>          <int>     <dbl>    <int>          <int>
##  1  2013     6     1        2           2359         3      341            350
##  2  2013     6     1      451            500        -9      624            640
##  3  2013     6     1      506            515        -9      715            800
##  4  2013     6     1      534            545       -11      800            829
##  5  2013     6     1      538            545        -7      925            922
##  6  2013     6     1      539            540        -1      832            840
##  7  2013     6     1      546            600       -14      850            910
##  8  2013     6     1      551            600        -9      828            850
##  9  2013     6     1      552            600        -8      647            655
## 10  2013     6     1      553            600        -7      700            711
## # ... with 86,985 more rows, and 11 more variables: arr_delay <dbl>,
## #   carrier <chr>, flight <int>, tailnum <chr>, origin <chr>, dest <chr>,
## #   air_time <dbl>, distance <dbl>, hour <dbl>, minute <dbl>, time_hour <dttm>
filter(flights, arr_delay >= 120, dep_delay == 0)

## # A tibble: 3 x 19
##    year month   day dep_time sched_dep_time dep_delay arr_time sched_arr_time
##   <int> <int> <int>    <int>          <int>     <dbl>    <int>          <int>
## 1  2013    10     7     1350           1350         0     1736           1526
## 2  2013     5    23     1810           1810         0     2208           2000
## 3  2013     7     1      905            905         0     1443           1223
## # ... with 11 more variables: arr_delay <dbl>, carrier <chr>, flight <int>,
## #   tailnum <chr>, origin <chr>, dest <chr>, air_time <dbl>, distance <dbl>,
## #   hour <dbl>, minute <dbl>, time_hour <dttm>

filter(flights, dep_delay >= 60, dep_delay - arr_delay > 30 )

## # A tibble: 1,844 x 19
##     year month   day dep_time sched_dep_time dep_delay arr_time sched_arr_time
##    <int> <int> <int>    <int>          <int>     <dbl>    <int>          <int>
##  1  2013     1     1     2205           1720       285       46           2040
##  2  2013     1     1     2326           2130       116      131             18
##  3  2013     1     3     1503           1221       162     1803           1555
##  4  2013     1     3     1839           1700        99     2056           1950
##  5  2013     1     3     1850           1745        65     2148           2120
##  6  2013     1     3     1941           1759       102     2246           2139
##  7  2013     1     3     1950           1845        65     2228           2227
##  8  2013     1     3     2015           1915        60     2135           2111
##  9  2013     1     3     2257           2000       177       45           2224
## 10  2013     1     4     1917           1700       137     2135           1950
## # ... with 1,834 more rows, and 11 more variables: arr_delay <dbl>,
## #   carrier <chr>, flight <int>, tailnum <chr>, origin <chr>, dest <chr>,
## #   air_time <dbl>, distance <dbl>, hour <dbl>, minute <dbl>, time_hour <dttm>

summary(flights$arr_time)

##    Min. 1st Qu.  Median    Mean 3rd Qu.    Max.    NA's 
##       1    1104    1535    1502    1940    2400    8713

filter(flights, dep_time >= 600 | dep_time == 2400)

## # A tibble: 319,791 x 19
##     year month   day dep_time sched_dep_time dep_delay arr_time sched_arr_time
##    <int> <int> <int>    <int>          <int>     <dbl>    <int>          <int>
##  1  2013     1     1      600            600         0      851            858
##  2  2013     1     1      600            600         0      837            825
##  3  2013     1     1      601            600         1      844            850
##  4  2013     1     1      602            610        -8      812            820
##  5  2013     1     1      602            605        -3      821            805
##  6  2013     1     1      606            610        -4      858            910
##  7  2013     1     1      606            610        -4      837            845
##  8  2013     1     1      607            607         0      858            915
##  9  2013     1     1      608            600         8      807            735
## 10  2013     1     1      611            600        11      945            931
## # ... with 319,781 more rows, and 11 more variables: arr_delay <dbl>,
## #   carrier <chr>, flight <int>, tailnum <chr>, origin <chr>, dest <chr>,
## #   air_time <dbl>, distance <dbl>, hour <dbl>, minute <dbl>, time_hour <dttm>

filter(flights, between(month, 6,8))

## # A tibble: 86,995 x 19
##     year month   day dep_time sched_dep_time dep_delay arr_time sched_arr_time
##    <int> <int> <int>    <int>          <int>     <dbl>    <int>          <int>
##  1  2013     6     1        2           2359         3      341            350
##  2  2013     6     1      451            500        -9      624            640
##  3  2013     6     1      506            515        -9      715            800
##  4  2013     6     1      534            545       -11      800            829
##  5  2013     6     1      538            545        -7      925            922
##  6  2013     6     1      539            540        -1      832            840
##  7  2013     6     1      546            600       -14      850            910
##  8  2013     6     1      551            600        -9      828            850
##  9  2013     6     1      552            600        -8      647            655
## 10  2013     6     1      553            600        -7      700            711
## # ... with 86,985 more rows, and 11 more variables: arr_delay <dbl>,
## #   carrier <chr>, flight <int>, tailnum <chr>, origin <chr>, dest <chr>,
## #   air_time <dbl>, distance <dbl>, hour <dbl>, minute <dbl>, time_hour <dttm>

filter(flights, between(dep_time,600,2400))

## # A tibble: 319,791 x 19
##     year month   day dep_time sched_dep_time dep_delay arr_time sched_arr_time
##    <int> <int> <int>    <int>          <int>     <dbl>    <int>          <int>
##  1  2013     1     1      600            600         0      851            858
##  2  2013     1     1      600            600         0      837            825
##  3  2013     1     1      601            600         1      844            850
##  4  2013     1     1      602            610        -8      812            820
##  5  2013     1     1      602            605        -3      821            805
##  6  2013     1     1      606            610        -4      858            910
##  7  2013     1     1      606            610        -4      837            845
##  8  2013     1     1      607            607         0      858            915
##  9  2013     1     1      608            600         8      807            735
## 10  2013     1     1      611            600        11      945            931
## # ... with 319,781 more rows, and 11 more variables: arr_delay <dbl>,
## #   carrier <chr>, flight <int>, tailnum <chr>, origin <chr>, dest <chr>,
## #   air_time <dbl>, distance <dbl>, hour <dbl>, minute <dbl>, time_hour <dttm>
…
